{
    "port": "9000",
    "host": "localhost",
    "dbport": "5984",
    "db": "aui-sandbox",
    "soyHost": "localhost",
    "soyPort": 9001,
    "soyAUIInitPath": "/rest/compile/aui",
    "soyCompileRequestPath": "/rest/compile/multiple"
}